[
  {
    "country": "ID",
    "name": "Tunis",
    "lat": "-9.76",
    "lng": "124.6056"
  }, 
  {
    "country": "AF",
    "name": "Sharan",
    "lat": "33.175678",
    "lng": "68.730449"
  },
  {
    "country": "AF",
    "name": "Pur Chaman",
    "lat": "32.979774",
    "lng": "63.871933"
  },  
  {
    "country": "AF",
    "name": "Qarqin",
    "lat": "37.41853",
    "lng": "66.043581"
  }, 
  {
    "country": "AF",
    "name": "Mingajik",
    "lat": "37.027901",
    "lng": "66.128171"
  },
  {
    "country": "AF",
    "name": "Khanaqah",
    "lat": "36.62587",
    "lng": "69.536948"
  }, 
  {
    "country": "AF",
    "name": "Farkhar",
    "lat": "36.572884",
    "lng": "69.857834"
  },
  {
    "country": "AF",
    "name": "Darqad",
    "lat": "37.384145",
    "lng": "69.452941"
  },  
  {
    "country": "AF",
    "name": "Mehtar Lam",
    "lat": "34.671389",
    "lng": "70.209444"
  },
  {
    "country": "AF",
    "name": "Kishk-e Nakhud",
    "lat": "31.62519",
    "lng": "65.055108"
  }

]